lab01/fsic-sim/fsic_fpga/rtl/user/testbench/tc/xsim_29482.backup.log
#-----------------------------------------------------------
# xsim v2022.1 (64-bit)
# SW Build 3526262 on Mon Apr 18 15:47:01 MDT 2022
# IP Build 3524634 on Mon Apr 18 20:55:01 MDT 2022
# Start of session at: Sat Mar  9 09:01:14 2024
# Process ID: 29482
# Current directory: /home/ubuntu/Desktop/asoc/fsic-sim/fsic_fpga/rtl/user/testbench/tc
# Command line: xsim -mode tcl -source {xsim.dir/tb_fsic_xelab/xsim_script.tcl}
# Log file: /home/ubuntu/Desktop/asoc/fsic-sim/fsic_fpga/rtl/user/testbench/tc/xsim.log
# Journal file: /home/ubuntu/Desktop/asoc/fsic-sim/fsic_fpga/rtl/user/testbench/tc/xsim.jou
# Running On: ubuntu2004, OS: Linux, CPU Frequency: 1996.808 MHz, CPU Physical cores: 2, Host memory: 8323 MB
#-----------------------------------------------------------
source xsim.dir/tb_fsic_xelab/xsim_script.tcl
# xsim {tb_fsic_xelab} -autoloadwcfg -tclbatch {log_wave.tcl}
Time resolution is 1 ps
open_wave_config /home/ubuntu/Desktop/asoc/fsic-sim/fsic_fpga/rtl/user/testbench/tc/tb_fsic_xelab.wcfg
WARNING: Simulation object /tb_fsic/dut/U_MPRJ_IO0/vccd1 was not found in the design.
WARNING: Simulation object /tb_fsic/dut/U_MPRJ_IO0/vccd2 was not found in the design.
WARNING: Simulation object /tb_fsic/dut/U_MPRJ_IO0/vssd1 was not found in the design.
WARNING: Simulation object /tb_fsic/dut/U_MPRJ_IO0/vssd2 was not found in the design.
WARNING: Simulation object /tb_fsic/vccd1 was not found in the design.
WARNING: Simulation object /tb_fsic/vccd2 was not found in the design.
WARNING: Simulation object /tb_fsic/vssd1 was not found in the design.
WARNING: Simulation object /tb_fsic/vssd2 was not found in the design.
WARNING: Simulation object /tb_fsic/dut/AXIS_SW0/pre_rd_ptr_reg was not found in the design.
WARNING: Simulation object /tb_fsic/dut/AXIS_SW0/as_up_tvalid_reg was not found in the design.
WARNING: Simulation object /tb_fsic/dut/AXIS_SW0/as_aa_tvalid_reg was not found in the design.
WARNING: Simulation object /tb_fsic/dut/AXIS_SW0/delaynext was not found in the design.
WARNING: Simulation object /tb_fsic/dut/AXIS_SW0/pre_m_axis was not found in the design.
WARNING: Simulation object /tb_fsic/dut/AXIS_SW0/as_up_tvalid_reg was not found in the design.
WARNING: Simulation object /tb_fsic/dut/AXIS_SW0/pre_rd_ptr_reg was not found in the design.
WARNING: Simulation object /tb_fsic/dut/AXIS_SW0/as_up_tvalid_reg was not found in the design.
WARNING: Simulation object /tb_fsic/dut/AXIS_SW0/as_aa_tvalid_reg was not found in the design.
WARNING: Simulation object /tb_fsic/dut/AXIS_SW0/delaynext was not found in the design.
WARNING: Simulation object /tb_fsic/dut/AXIS_SW0/pre_m_axis was not found in the design.
source log_wave.tcl
## log_wave -quiet -verbose -recursive *
## run all
                  40=> soc POR Assert
                  40=> fpga POR Assert
                  40=> fpga reset Assert
                  80=> soc POR De-Assert
                  80=> fpga POR De-Assert
                 120=> fpga reset De-Assert
                 185=> fpga_as_to_is_init done
                 225=> fpga_cfg_write : fpga_axi_awaddr=0000, fpga_axi_awvalid=1, fpga_axi_awready=1, fpga_axi_wdata=00000001, axi_wstrb=1, fpga_axi_wvalid=1, fpga_axi_wready=1
                 425=> soc_is_cfg_write : wbs_adr=30003000, wbs_sel=0001, wbs_wdata=00000001
                 425=> soc rxen_ctl=1
                 425=> fpga rxen_ctl=1
                 865=> fpga_cfg_write : fpga_axi_awaddr=0000, fpga_axi_awvalid=1, fpga_axi_awready=1, fpga_axi_wdata=00000003, axi_wstrb=1, fpga_axi_wvalid=1, fpga_axi_wready=1
                1025=> soc_is_cfg_write : wbs_adr=30003000, wbs_sel=0001, wbs_wdata=00000003
                1265=> soc_cfg_write : wbs_adr=30005000, wbs_sel=0001, wbs_wdata=00000001
                1305=> fpga_axilite_write_req in address phase = 10000010 - tvalid
                1345=> fpga_axilite_write_req in address phase = 10000010 - transfer
                1345=> fpga_axilite_write_req in data phase = 00000040 - tvalid
                1385=> fpga_axilite_write_req in data phase = 00000040 - transfer
                5425=> fpga_axilite_write_req in address phase = 10000020 - tvalid
                5465=> fpga_axilite_write_req in address phase = 10000020 - transfer
                5465=> fpga_axilite_write_req in data phase = 00000000 - tvalid
                5505=> fpga_axilite_write_req in data phase = 00000000 - transfer
                9545=> fpga_axilite_write_req in address phase = 10000024 - tvalid
                9585=> fpga_axilite_write_req in address phase = 10000024 - transfer
                9585=> fpga_axilite_write_req in data phase = fffffff6 - tvalid
                9625=> fpga_axilite_write_req in data phase = fffffff6 - transfer
               13665=> fpga_axilite_write_req in address phase = 10000028 - tvalid
               13705=> fpga_axilite_write_req in address phase = 10000028 - transfer
               13705=> fpga_axilite_write_req in data phase = fffffff7 - tvalid
               13745=> fpga_axilite_write_req in data phase = fffffff7 - transfer
               17785=> fpga_axilite_write_req in address phase = 1000002c - tvalid
               17825=> fpga_axilite_write_req in address phase = 1000002c - transfer
               17825=> fpga_axilite_write_req in data phase = 00000017 - tvalid
               17865=> fpga_axilite_write_req in data phase = 00000017 - transfer
               21905=> fpga_axilite_write_req in address phase = 10000030 - tvalid
               21945=> fpga_axilite_write_req in address phase = 10000030 - transfer
               21945=> fpga_axilite_write_req in data phase = 00000038 - tvalid
               21985=> fpga_axilite_write_req in data phase = 00000038 - transfer
               26025=> fpga_axilite_write_req in address phase = 10000034 - tvalid
               26065=> fpga_axilite_write_req in address phase = 10000034 - transfer
               26065=> fpga_axilite_write_req in data phase = 0000003f - tvalid
               26105=> fpga_axilite_write_req in data phase = 0000003f - transfer
               30145=> fpga_axilite_write_req in address phase = 10000038 - tvalid
               30185=> fpga_axilite_write_req in address phase = 10000038 - transfer
               30185=> fpga_axilite_write_req in data phase = 00000038 - tvalid
               30225=> fpga_axilite_write_req in data phase = 00000038 - transfer
               34265=> fpga_axilite_write_req in address phase = 1000003c - tvalid
               34305=> fpga_axilite_write_req in address phase = 1000003c - transfer
               34305=> fpga_axilite_write_req in data phase = 00000017 - tvalid
               34345=> fpga_axilite_write_req in data phase = 00000017 - transfer
               38385=> fpga_axilite_write_req in address phase = 10000040 - tvalid
               38425=> fpga_axilite_write_req in address phase = 10000040 - transfer
               38425=> fpga_axilite_write_req in data phase = fffffff7 - tvalid
               38465=> fpga_axilite_write_req in data phase = fffffff7 - transfer
               42505=> fpga_axilite_write_req in address phase = 10000044 - tvalid
               42545=> fpga_axilite_write_req in address phase = 10000044 - transfer
               42545=> fpga_axilite_write_req in data phase = fffffff6 - tvalid
               42585=> fpga_axilite_write_req in data phase = fffffff6 - transfer
               46625=> fpga_axilite_write_req in address phase = 10000048 - tvalid
               46665=> fpga_axilite_write_req in address phase = 10000048 - transfer
               46665=> fpga_axilite_write_req in data phase = 00000000 - tvalid
               46705=> fpga_axilite_write_req in data phase = 00000000 - transfer
               50745=> fpga_axilite_write_req in address phase = 10000000 - tvalid
               50785=> fpga_axilite_write_req in address phase = 10000000 - transfer
               50785=> fpga_axilite_write_req in data phase = 00000001 - tvalid
               50825=> fpga_axilite_write_req in data phase = 00000001 - transfer
               54865=> fpga_axis_req send data,data = 00000000
               54905=> fpga_axis_req send data,data = 00000001
               54945=> fpga_axis_req send data,data = 00000002
               54985=> fpga_axis_req send data,data = 00000003
               55025=> fpga_axis_req send data,data = 00000004
               55065=> fpga_axis_req send data,data = 00000005
               55105=> fpga_axis_req send data,data = 00000006
               55145=> fpga_axis_req send data,data = 00000007
               55185=> fpga_axis_req send data,data = 00000008
               55225=> fpga_axis_req send data,data = 00000009
               55265=> fpga_axis_req send data,data = 0000000a
               55305=> fpga_axis_req send data,data = 0000000b
               55345=> fpga_axis_req send data,data = 0000000c
               55385=> fpga_axis_req send data,data = 0000000d
               55425=> fpga_axis_req send data,data = 0000000e
               55465=> fpga_axis_req send data,data = 0000000f
               55505=> fpga_axis_req send data,data = 00000010
               55785=> get soc_to_fpga_axis be : soc_to_fpga_axis_captured_count=         0,  soc_to_fpga_axis_captured[         0] =xxxxxxxxxxxx, fpga_is_as_tupsb=00, fpga_is_as_tstrb=0, fpga_is_as_tkeep=0 , fpga_is_as_tlast=0, fpga_is_as_tdata=00000000
               55785=> get soc_to_fpga_axis af : soc_to_fpga_axis_captured_count=         0,  soc_to_fpga_axis_captured[         0] =000000000000, fpga_is_as_tupsb=00, fpga_is_as_tstrb=0, fpga_is_as_tkeep=0 , fpga_is_as_tlast=0, fpga_is_as_tdata=00000000
               56345=> get soc_to_fpga_axis be : soc_to_fpga_axis_captured_count=         1,  soc_to_fpga_axis_captured[         1] =xxxxxxxxxxxx, fpga_is_as_tupsb=00, fpga_is_as_tstrb=0, fpga_is_as_tkeep=0 , fpga_is_as_tlast=0, fpga_is_as_tdata=00000000
               56345=> get soc_to_fpga_axis af : soc_to_fpga_axis_captured_count=         1,  soc_to_fpga_axis_captured[         1] =000000000000, fpga_is_as_tupsb=00, fpga_is_as_tstrb=0, fpga_is_as_tkeep=0 , fpga_is_as_tlast=0, fpga_is_as_tdata=00000000
               56905=> get soc_to_fpga_axis be : soc_to_fpga_axis_captured_count=         2,  soc_to_fpga_axis_captured[         2] =xxxxxxxxxxxx, fpga_is_as_tupsb=00, fpga_is_as_tstrb=0, fpga_is_as_tkeep=0 , fpga_is_as_tlast=0, fpga_is_as_tdata=fffffff6
               56905=> get soc_to_fpga_axis af : soc_to_fpga_axis_captured_count=         2,  soc_to_fpga_axis_captured[         2] =0000fffffff6, fpga_is_as_tupsb=00, fpga_is_as_tstrb=0, fpga_is_as_tkeep=0 , fpga_is_as_tlast=0, fpga_is_as_tdata=fffffff6
               57465=> get soc_to_fpga_axis be : soc_to_fpga_axis_captured_count=         3,  soc_to_fpga_axis_captured[         3] =xxxxxxxxxxxx, fpga_is_as_tupsb=00, fpga_is_as_tstrb=0, fpga_is_as_tkeep=0 , fpga_is_as_tlast=0, fpga_is_as_tdata=ffffffe3
               57465=> get soc_to_fpga_axis af : soc_to_fpga_axis_captured_count=         3,  soc_to_fpga_axis_captured[         3] =0000ffffffe3, fpga_is_as_tupsb=00, fpga_is_as_tstrb=0, fpga_is_as_tkeep=0 , fpga_is_as_tlast=0, fpga_is_as_tdata=ffffffe3
               58025=> get soc_to_fpga_axis be : soc_to_fpga_axis_captured_count=         4,  soc_to_fpga_axis_captured[         4] =xxxxxxxxxxxx, fpga_is_as_tupsb=00, fpga_is_as_tstrb=0, fpga_is_as_tkeep=0 , fpga_is_as_tlast=0, fpga_is_as_tdata=ffffffe7
               58025=> get soc_to_fpga_axis af : soc_to_fpga_axis_captured_count=         4,  soc_to_fpga_axis_captured[         4] =0000ffffffe7, fpga_is_as_tupsb=00, fpga_is_as_tstrb=0, fpga_is_as_tkeep=0 , fpga_is_as_tlast=0, fpga_is_as_tdata=ffffffe7
               58585=> get soc_to_fpga_axis be : soc_to_fpga_axis_captured_count=         5,  soc_to_fpga_axis_captured[         5] =xxxxxxxxxxxx, fpga_is_as_tupsb=00, fpga_is_as_tstrb=0, fpga_is_as_tkeep=0 , fpga_is_as_tlast=0, fpga_is_as_tdata=00000023
               58585=> get soc_to_fpga_axis af : soc_to_fpga_axis_captured_count=         5,  soc_to_fpga_axis_captured[         5] =000000000023, fpga_is_as_tupsb=00, fpga_is_as_tstrb=0, fpga_is_as_tkeep=0 , fpga_is_as_tlast=0, fpga_is_as_tdata=00000023
               59145=> get soc_to_fpga_axis be : soc_to_fpga_axis_captured_count=         6,  soc_to_fpga_axis_captured[         6] =xxxxxxxxxxxx, fpga_is_as_tupsb=00, fpga_is_as_tstrb=0, fpga_is_as_tkeep=0 , fpga_is_as_tlast=0, fpga_is_as_tdata=0000009e
               59145=> get soc_to_fpga_axis af : soc_to_fpga_axis_captured_count=         6,  soc_to_fpga_axis_captured[         6] =00000000009e, fpga_is_as_tupsb=00, fpga_is_as_tstrb=0, fpga_is_as_tkeep=0 , fpga_is_as_tlast=0, fpga_is_as_tdata=0000009e
               59705=> get soc_to_fpga_axis be : soc_to_fpga_axis_captured_count=         7,  soc_to_fpga_axis_captured[         7] =xxxxxxxxxxxx, fpga_is_as_tupsb=00, fpga_is_as_tstrb=0, fpga_is_as_tkeep=0 , fpga_is_as_tlast=0, fpga_is_as_tdata=00000151
               59705=> get soc_to_fpga_axis af : soc_to_fpga_axis_captured_count=         7,  soc_to_fpga_axis_captured[         7] =000000000151, fpga_is_as_tupsb=00, fpga_is_as_tstrb=0, fpga_is_as_tkeep=0 , fpga_is_as_tlast=0, fpga_is_as_tdata=00000151
               60265=> get soc_to_fpga_axis be : soc_to_fpga_axis_captured_count=         8,  soc_to_fpga_axis_captured[         8] =xxxxxxxxxxxx, fpga_is_as_tupsb=00, fpga_is_as_tstrb=0, fpga_is_as_tkeep=0 , fpga_is_as_tlast=0, fpga_is_as_tdata=0000021b
               60265=> get soc_to_fpga_axis af : soc_to_fpga_axis_captured_count=         8,  soc_to_fpga_axis_captured[         8] =00000000021b, fpga_is_as_tupsb=00, fpga_is_as_tstrb=0, fpga_is_as_tkeep=0 , fpga_is_as_tlast=0, fpga_is_as_tdata=0000021b
               60385=> fpga_axis_req send data,data = 00000011
               60425=> fpga_axis_req send data,data = 00000012
               60465=> fpga_axis_req send data,data = 00000013
               60505=> fpga_axis_req send data,data = 00000014
               60545=> fpga_axis_req send data,data = 00000015
               60585=> fpga_axis_req send data,data = 00000016
               60625=> fpga_axis_req send data,data = 00000017
               60665=> fpga_axis_req send data,data = 00000018
               60705=> fpga_axis_req send data,data = 00000019
               60825=> get soc_to_fpga_axis be : soc_to_fpga_axis_captured_count=         9,  soc_to_fpga_axis_captured[         9] =xxxxxxxxxxxx, fpga_is_as_tupsb=00, fpga_is_as_tstrb=0, fpga_is_as_tkeep=0 , fpga_is_as_tlast=0, fpga_is_as_tdata=000002dc
               60825=> get soc_to_fpga_axis af : soc_to_fpga_axis_captured_count=         9,  soc_to_fpga_axis_captured[         9] =0000000002dc, fpga_is_as_tupsb=00, fpga_is_as_tstrb=0, fpga_is_as_tkeep=0 , fpga_is_as_tlast=0, fpga_is_as_tdata=000002dc
               61385=> get soc_to_fpga_axis be : soc_to_fpga_axis_captured_count=        10,  soc_to_fpga_axis_captured[        10] =xxxxxxxxxxxx, fpga_is_as_tupsb=00, fpga_is_as_tstrb=0, fpga_is_as_tkeep=0 , fpga_is_as_tlast=0, fpga_is_as_tdata=00000393
               61385=> get soc_to_fpga_axis af : soc_to_fpga_axis_captured_count=        10,  soc_to_fpga_axis_captured[        10] =000000000393, fpga_is_as_tupsb=00, fpga_is_as_tstrb=0, fpga_is_as_tkeep=0 , fpga_is_as_tlast=0, fpga_is_as_tdata=00000393
               61945=> get soc_to_fpga_axis be : soc_to_fpga_axis_captured_count=        11,  soc_to_fpga_axis_captured[        11] =xxxxxxxxxxxx, fpga_is_as_tupsb=00, fpga_is_as_tstrb=0, fpga_is_as_tkeep=0 , fpga_is_as_tlast=0, fpga_is_as_tdata=0000044a
               61945=> get soc_to_fpga_axis af : soc_to_fpga_axis_captured_count=        11,  soc_to_fpga_axis_captured[        11] =00000000044a, fpga_is_as_tupsb=00, fpga_is_as_tstrb=0, fpga_is_as_tkeep=0 , fpga_is_as_tlast=0, fpga_is_as_tdata=0000044a
               62505=> get soc_to_fpga_axis be : soc_to_fpga_axis_captured_count=        12,  soc_to_fpga_axis_captured[        12] =xxxxxxxxxxxx, fpga_is_as_tupsb=00, fpga_is_as_tstrb=0, fpga_is_as_tkeep=0 , fpga_is_as_tlast=0, fpga_is_as_tdata=00000501
               62505=> get soc_to_fpga_axis af : soc_to_fpga_axis_captured_count=        12,  soc_to_fpga_axis_captured[        12] =000000000501, fpga_is_as_tupsb=00, fpga_is_as_tstrb=0, fpga_is_as_tkeep=0 , fpga_is_as_tlast=0, fpga_is_as_tdata=00000501
               63065=> get soc_to_fpga_axis be : soc_to_fpga_axis_captured_count=        13,  soc_to_fpga_axis_captured[        13] =xxxxxxxxxxxx, fpga_is_as_tupsb=00, fpga_is_as_tstrb=0, fpga_is_as_tkeep=0 , fpga_is_as_tlast=0, fpga_is_as_tdata=000005b8
               63065=> get soc_to_fpga_axis af : soc_to_fpga_axis_captured_count=        13,  soc_to_fpga_axis_captured[        13] =0000000005b8, fpga_is_as_tupsb=00, fpga_is_as_tstrb=0, fpga_is_as_tkeep=0 , fpga_is_as_tlast=0, fpga_is_as_tdata=000005b8
               63625=> get soc_to_fpga_axis be : soc_to_fpga_axis_captured_count=        14,  soc_to_fpga_axis_captured[        14] =xxxxxxxxxxxx, fpga_is_as_tupsb=00, fpga_is_as_tstrb=0, fpga_is_as_tkeep=0 , fpga_is_as_tlast=0, fpga_is_as_tdata=0000066f
               63625=> get soc_to_fpga_axis af : soc_to_fpga_axis_captured_count=        14,  soc_to_fpga_axis_captured[        14] =00000000066f, fpga_is_as_tupsb=00, fpga_is_as_tstrb=0, fpga_is_as_tkeep=0 , fpga_is_as_tlast=0, fpga_is_as_tdata=0000066f
               64185=> get soc_to_fpga_axis be : soc_to_fpga_axis_captured_count=        15,  soc_to_fpga_axis_captured[        15] =xxxxxxxxxxxx, fpga_is_as_tupsb=00, fpga_is_as_tstrb=0, fpga_is_as_tkeep=0 , fpga_is_as_tlast=0, fpga_is_as_tdata=00000726
               64185=> get soc_to_fpga_axis af : soc_to_fpga_axis_captured_count=        15,  soc_to_fpga_axis_captured[        15] =000000000726, fpga_is_as_tupsb=00, fpga_is_as_tstrb=0, fpga_is_as_tkeep=0 , fpga_is_as_tlast=0, fpga_is_as_tdata=00000726
               64745=> get soc_to_fpga_axis be : soc_to_fpga_axis_captured_count=        16,  soc_to_fpga_axis_captured[        16] =xxxxxxxxxxxx, fpga_is_as_tupsb=00, fpga_is_as_tstrb=0, fpga_is_as_tkeep=0 , fpga_is_as_tlast=0, fpga_is_as_tdata=000007dd
               64745=> get soc_to_fpga_axis af : soc_to_fpga_axis_captured_count=        16,  soc_to_fpga_axis_captured[        16] =0000000007dd, fpga_is_as_tupsb=00, fpga_is_as_tstrb=0, fpga_is_as_tkeep=0 , fpga_is_as_tlast=0, fpga_is_as_tdata=000007dd
               65305=> get soc_to_fpga_axis be : soc_to_fpga_axis_captured_count=        17,  soc_to_fpga_axis_captured[        17] =xxxxxxxxxxxx, fpga_is_as_tupsb=00, fpga_is_as_tstrb=0, fpga_is_as_tkeep=0 , fpga_is_as_tlast=0, fpga_is_as_tdata=00000894
               65305=> get soc_to_fpga_axis af : soc_to_fpga_axis_captured_count=        17,  soc_to_fpga_axis_captured[        17] =000000000894, fpga_is_as_tupsb=00, fpga_is_as_tstrb=0, fpga_is_as_tkeep=0 , fpga_is_as_tlast=0, fpga_is_as_tdata=00000894
               65425=> fpga_axis_req send data,data = 0000001a
               65465=> fpga_axis_req send data,data = 0000001b
               65505=> fpga_axis_req send data,data = 0000001c
               65545=> fpga_axis_req send data,data = 0000001d
               65585=> fpga_axis_req send data,data = 0000001e
               65625=> fpga_axis_req send data,data = 0000001f
               65665=> fpga_axis_req send data,data = 00000020
               65705=> fpga_axis_req send data,data = 00000021
               65745=> fpga_axis_req send data,data = 00000022
               65865=> get soc_to_fpga_axis be : soc_to_fpga_axis_captured_count=        18,  soc_to_fpga_axis_captured[        18] =xxxxxxxxxxxx, fpga_is_as_tupsb=00, fpga_is_as_tstrb=0, fpga_is_as_tkeep=0 , fpga_is_as_tlast=0, fpga_is_as_tdata=0000094b
               65865=> get soc_to_fpga_axis af : soc_to_fpga_axis_captured_count=        18,  soc_to_fpga_axis_captured[        18] =00000000094b, fpga_is_as_tupsb=00, fpga_is_as_tstrb=0, fpga_is_as_tkeep=0 , fpga_is_as_tlast=0, fpga_is_as_tdata=0000094b
               66425=> get soc_to_fpga_axis be : soc_to_fpga_axis_captured_count=        19,  soc_to_fpga_axis_captured[        19] =xxxxxxxxxxxx, fpga_is_as_tupsb=00, fpga_is_as_tstrb=0, fpga_is_as_tkeep=0 , fpga_is_as_tlast=0, fpga_is_as_tdata=00000a02
               66425=> get soc_to_fpga_axis af : soc_to_fpga_axis_captured_count=        19,  soc_to_fpga_axis_captured[        19] =000000000a02, fpga_is_as_tupsb=00, fpga_is_as_tstrb=0, fpga_is_as_tkeep=0 , fpga_is_as_tlast=0, fpga_is_as_tdata=00000a02
               66985=> get soc_to_fpga_axis be : soc_to_fpga_axis_captured_count=        20,  soc_to_fpga_axis_captured[        20] =xxxxxxxxxxxx, fpga_is_as_tupsb=00, fpga_is_as_tstrb=0, fpga_is_as_tkeep=0 , fpga_is_as_tlast=0, fpga_is_as_tdata=00000ab9
               66985=> get soc_to_fpga_axis af : soc_to_fpga_axis_captured_count=        20,  soc_to_fpga_axis_captured[        20] =000000000ab9, fpga_is_as_tupsb=00, fpga_is_as_tstrb=0, fpga_is_as_tkeep=0 , fpga_is_as_tlast=0, fpga_is_as_tdata=00000ab9
               67545=> get soc_to_fpga_axis be : soc_to_fpga_axis_captured_count=        21,  soc_to_fpga_axis_captured[        21] =xxxxxxxxxxxx, fpga_is_as_tupsb=00, fpga_is_as_tstrb=0, fpga_is_as_tkeep=0 , fpga_is_as_tlast=0, fpga_is_as_tdata=00000b70
               67545=> get soc_to_fpga_axis af : soc_to_fpga_axis_captured_count=        21,  soc_to_fpga_axis_captured[        21] =000000000b70, fpga_is_as_tupsb=00, fpga_is_as_tstrb=0, fpga_is_as_tkeep=0 , fpga_is_as_tlast=0, fpga_is_as_tdata=00000b70
               68105=> get soc_to_fpga_axis be : soc_to_fpga_axis_captured_count=        22,  soc_to_fpga_axis_captured[        22] =xxxxxxxxxxxx, fpga_is_as_tupsb=00, fpga_is_as_tstrb=0, fpga_is_as_tkeep=0 , fpga_is_as_tlast=0, fpga_is_as_tdata=00000c27
               68105=> get soc_to_fpga_axis af : soc_to_fpga_axis_captured_count=        22,  soc_to_fpga_axis_captured[        22] =000000000c27, fpga_is_as_tupsb=00, fpga_is_as_tstrb=0, fpga_is_as_tkeep=0 , fpga_is_as_tlast=0, fpga_is_as_tdata=00000c27
               68665=> get soc_to_fpga_axis be : soc_to_fpga_axis_captured_count=        23,  soc_to_fpga_axis_captured[        23] =xxxxxxxxxxxx, fpga_is_as_tupsb=00, fpga_is_as_tstrb=0, fpga_is_as_tkeep=0 , fpga_is_as_tlast=0, fpga_is_as_tdata=00000cde
               68665=> get soc_to_fpga_axis af : soc_to_fpga_axis_captured_count=        23,  soc_to_fpga_axis_captured[        23] =000000000cde, fpga_is_as_tupsb=00, fpga_is_as_tstrb=0, fpga_is_as_tkeep=0 , fpga_is_as_tlast=0, fpga_is_as_tdata=00000cde
               69225=> get soc_to_fpga_axis be : soc_to_fpga_axis_captured_count=        24,  soc_to_fpga_axis_captured[        24] =xxxxxxxxxxxx, fpga_is_as_tupsb=00, fpga_is_as_tstrb=0, fpga_is_as_tkeep=0 , fpga_is_as_tlast=0, fpga_is_as_tdata=00000d95
               69225=> get soc_to_fpga_axis af : soc_to_fpga_axis_captured_count=        24,  soc_to_fpga_axis_captured[        24] =000000000d95, fpga_is_as_tupsb=00, fpga_is_as_tstrb=0, fpga_is_as_tkeep=0 , fpga_is_as_tlast=0, fpga_is_as_tdata=00000d95
               69785=> get soc_to_fpga_axis be : soc_to_fpga_axis_captured_count=        25,  soc_to_fpga_axis_captured[        25] =xxxxxxxxxxxx, fpga_is_as_tupsb=00, fpga_is_as_tstrb=0, fpga_is_as_tkeep=0 , fpga_is_as_tlast=0, fpga_is_as_tdata=00000e4c
               69785=> get soc_to_fpga_axis af : soc_to_fpga_axis_captured_count=        25,  soc_to_fpga_axis_captured[        25] =000000000e4c, fpga_is_as_tupsb=00, fpga_is_as_tstrb=0, fpga_is_as_tkeep=0 , fpga_is_as_tlast=0, fpga_is_as_tdata=00000e4c
               70345=> get soc_to_fpga_axis be : soc_to_fpga_axis_captured_count=        26,  soc_to_fpga_axis_captured[        26] =xxxxxxxxxxxx, fpga_is_as_tupsb=00, fpga_is_as_tstrb=0, fpga_is_as_tkeep=0 , fpga_is_as_tlast=0, fpga_is_as_tdata=00000f03
               70345=> get soc_to_fpga_axis af : soc_to_fpga_axis_captured_count=        26,  soc_to_fpga_axis_captured[        26] =000000000f03, fpga_is_as_tupsb=00, fpga_is_as_tstrb=0, fpga_is_as_tkeep=0 , fpga_is_as_tlast=0, fpga_is_as_tdata=00000f03
               70465=> fpga_axis_req send data,data = 00000023
               70505=> fpga_axis_req send data,data = 00000024
               70545=> fpga_axis_req send data,data = 00000025
               70585=> fpga_axis_req send data,data = 00000026
               70625=> fpga_axis_req send data,data = 00000027
               70665=> fpga_axis_req send data,data = 00000028
               70705=> fpga_axis_req send data,data = 00000029
               70745=> fpga_axis_req send data,data = 0000002a
               70785=> fpga_axis_req send data,data = 0000002b
               70905=> get soc_to_fpga_axis be : soc_to_fpga_axis_captured_count=        27,  soc_to_fpga_axis_captured[        27] =xxxxxxxxxxxx, fpga_is_as_tupsb=00, fpga_is_as_tstrb=0, fpga_is_as_tkeep=0 , fpga_is_as_tlast=0, fpga_is_as_tdata=00000fba
               70905=> get soc_to_fpga_axis af : soc_to_fpga_axis_captured_count=        27,  soc_to_fpga_axis_captured[        27] =000000000fba, fpga_is_as_tupsb=00, fpga_is_as_tstrb=0, fpga_is_as_tkeep=0 , fpga_is_as_tlast=0, fpga_is_as_tdata=00000fba
               71465=> get soc_to_fpga_axis be : soc_to_fpga_axis_captured_count=        28,  soc_to_fpga_axis_captured[        28] =xxxxxxxxxxxx, fpga_is_as_tupsb=00, fpga_is_as_tstrb=0, fpga_is_as_tkeep=0 , fpga_is_as_tlast=0, fpga_is_as_tdata=00001071
               71465=> get soc_to_fpga_axis af : soc_to_fpga_axis_captured_count=        28,  soc_to_fpga_axis_captured[        28] =000000001071, fpga_is_as_tupsb=00, fpga_is_as_tstrb=0, fpga_is_as_tkeep=0 , fpga_is_as_tlast=0, fpga_is_as_tdata=00001071
               72025=> get soc_to_fpga_axis be : soc_to_fpga_axis_captured_count=        29,  soc_to_fpga_axis_captured[        29] =xxxxxxxxxxxx, fpga_is_as_tupsb=00, fpga_is_as_tstrb=0, fpga_is_as_tkeep=0 , fpga_is_as_tlast=0, fpga_is_as_tdata=00001128
               72025=> get soc_to_fpga_axis af : soc_to_fpga_axis_captured_count=        29,  soc_to_fpga_axis_captured[        29] =000000001128, fpga_is_as_tupsb=00, fpga_is_as_tstrb=0, fpga_is_as_tkeep=0 , fpga_is_as_tlast=0, fpga_is_as_tdata=00001128
               72585=> get soc_to_fpga_axis be : soc_to_fpga_axis_captured_count=        30,  soc_to_fpga_axis_captured[        30] =xxxxxxxxxxxx, fpga_is_as_tupsb=00, fpga_is_as_tstrb=0, fpga_is_as_tkeep=0 , fpga_is_as_tlast=0, fpga_is_as_tdata=000011df
               72585=> get soc_to_fpga_axis af : soc_to_fpga_axis_captured_count=        30,  soc_to_fpga_axis_captured[        30] =0000000011df, fpga_is_as_tupsb=00, fpga_is_as_tstrb=0, fpga_is_as_tkeep=0 , fpga_is_as_tlast=0, fpga_is_as_tdata=000011df
               73145=> get soc_to_fpga_axis be : soc_to_fpga_axis_captured_count=        31,  soc_to_fpga_axis_captured[        31] =xxxxxxxxxxxx, fpga_is_as_tupsb=00, fpga_is_as_tstrb=0, fpga_is_as_tkeep=0 , fpga_is_as_tlast=0, fpga_is_as_tdata=00001296
               73145=> get soc_to_fpga_axis af : soc_to_fpga_axis_captured_count=        31,  soc_to_fpga_axis_captured[        31] =000000001296, fpga_is_as_tupsb=00, fpga_is_as_tstrb=0, fpga_is_as_tkeep=0 , fpga_is_as_tlast=0, fpga_is_as_tdata=00001296
               73705=> get soc_to_fpga_axis be : soc_to_fpga_axis_captured_count=        32,  soc_to_fpga_axis_captured[        32] =xxxxxxxxxxxx, fpga_is_as_tupsb=00, fpga_is_as_tstrb=0, fpga_is_as_tkeep=0 , fpga_is_as_tlast=0, fpga_is_as_tdata=0000134d
               73705=> get soc_to_fpga_axis af : soc_to_fpga_axis_captured_count=        32,  soc_to_fpga_axis_captured[        32] =00000000134d, fpga_is_as_tupsb=00, fpga_is_as_tstrb=0, fpga_is_as_tkeep=0 , fpga_is_as_tlast=0, fpga_is_as_tdata=0000134d
               74265=> get soc_to_fpga_axis be : soc_to_fpga_axis_captured_count=        33,  soc_to_fpga_axis_captured[        33] =xxxxxxxxxxxx, fpga_is_as_tupsb=00, fpga_is_as_tstrb=0, fpga_is_as_tkeep=0 , fpga_is_as_tlast=0, fpga_is_as_tdata=00001404
               74265=> get soc_to_fpga_axis af : soc_to_fpga_axis_captured_count=        33,  soc_to_fpga_axis_captured[        33] =000000001404, fpga_is_as_tupsb=00, fpga_is_as_tstrb=0, fpga_is_as_tkeep=0 , fpga_is_as_tlast=0, fpga_is_as_tdata=00001404
               74825=> get soc_to_fpga_axis be : soc_to_fpga_axis_captured_count=        34,  soc_to_fpga_axis_captured[        34] =xxxxxxxxxxxx, fpga_is_as_tupsb=00, fpga_is_as_tstrb=0, fpga_is_as_tkeep=0 , fpga_is_as_tlast=0, fpga_is_as_tdata=000014bb
               74825=> get soc_to_fpga_axis af : soc_to_fpga_axis_captured_count=        34,  soc_to_fpga_axis_captured[        34] =0000000014bb, fpga_is_as_tupsb=00, fpga_is_as_tstrb=0, fpga_is_as_tkeep=0 , fpga_is_as_tlast=0, fpga_is_as_tdata=000014bb
               75385=> get soc_to_fpga_axis be : soc_to_fpga_axis_captured_count=        35,  soc_to_fpga_axis_captured[        35] =xxxxxxxxxxxx, fpga_is_as_tupsb=00, fpga_is_as_tstrb=0, fpga_is_as_tkeep=0 , fpga_is_as_tlast=0, fpga_is_as_tdata=00001572
